…
``` r
?LRdb_human
?LRdb_mouse
```

We also created getter functions, get_LRdb() and get_LRdb_small(), to
retrieve the database.

``` r
LRdb_m <- 
  get_LRdb_small("mouse")

LRdb_m %>% 
  arrange(ligand_gene_symbol, receptor_gene_symbol)
#> # A tibble: 104 × 10
#>    LR    ligand_gene_symbol receptor_gene_symbol ligand_gene_id receptor_gene_id
#>    <chr> <chr>              <chr>                         <dbl>            <dbl>
#>  1 Adam… Adam12             Epha1                         11489            13835
#>  2 Adam… Adam17             Aplp2                         11491            11804
#>  3 Adam… Adam2              Itga9                         11495           104099
#>  4 Adip… Adipoq             Adipor1                       11450            72674
#>  5 Alka… Alkal2             Alk                       100294583            11682
#>  6 Anxa… Anxa1              Dysf                          16952            26903
#>  7 Apoe… Apoe               Scarb1                        11816            20778
#>  8 Apoe… Apoe               Sdc1                          11816            20969
#>  9 App_… App                Cd74                          11820            16149
#> 10 App_… App                Dcc                           11820            13176
#> # ℹ 94 more rows
#> # ℹ 5 more variables: ligand_ensembl_protein_id <chr>,
#> #   receptor_ensembl_protein_id <chr>, ligand_ensembl_gene_id <chr>,
#> #   receptor_ensembl_gene_id <chr>, evidence <chr>
```
…
tictoc::tic()
ccc_tbl <- compute_spatial_ccc(spe = spe_brain, 
                               assay_name = "logcounts",
                               LRdb = LRdb_m)
tictoc::toc()
#> 7.329 sec elapsed

# future::plan(future::sequential)
```

``` r
ccc_tbl %>% 
  dplyr::arrange(desc(LRscore))
#> # A tibble: 141,605 × 10
#>    src         dst       d norm.d LR    ligand receptor LRscore  weight WLRscore
#>    <chr>       <chr> <dbl>  <dbl> <chr> <chr>  <chr>      <dbl>   <dbl>    <dbl>
#>  1 GACGTGTAGG… GACG…    0    0    App_… App    Lrp10      0.859 Inf      Inf    
#>  2 GGTGCTGGTA… GGTG…    0    0    App_… App    Cd74       0.852 Inf      Inf    
#>  3 GGGCGGTCCT… GGGT…  138    1.01 Gnai… Gnai2  Cnr1       0.852   0.986    0.839
#>  4 AAATAGCTTA… CTAG…  138    1.01 Gnai… Gnai2  Cnr1       0.851   0.986    0.838
#>  5 CACCCAAATC… CTAG…  138.   1.01 Gnai… Gnai2  Cnr1       0.850   0.980    0.833
#>  6 ACGGAATTTA… GGGT…  138.   1.01 Gnai… Gnai2  Cnr1       0.850   0.980    0.833
#>  7 AGCTCTTTAC… GGTG…  138.   1.00 App_… App    Cd74       0.850   0.992    0.843
#>  8 AACAGGATGG… GACG…  138.   1.01 App_… App    Lrp10      0.847   0.980    0.830
#>  9 AGGACGACCC… GGTG…  138.   1.01 App_… App    Cd74       0.847   0.980    0.830
#> 10 AGAAGGTTGC… GGTG…  138    1.01 App_… App    Cd74       0.847   0.986    0.834
#> # ℹ 141,595 more rows
```
…
``` r
tictoc::tic()

ccc_graph_metrics_summary_df <-
  summarize_ccc_graph_metrics(ccc_graph_list)

tictoc::toc()
#> 0.059 sec elapsed
```

``` r
ccc_graph_metrics_summary_df %>%
  arrange(graph_component_count)
#> # A tibble: 44 × 12
#>    LR        graph_n_nodes graph_n_edges graph_component_count graph_motif_count
#>    <chr>             <int>         <dbl>                 <dbl>             <int>
#>  1 Nlgn1_Nr…          2627         11042                     3             20957
#>  2 S100b_Al…          2657         13613                     3             24055
#>  3 App_Lrp10          2646          9835                     5             19655
#>  4 Rtn4_Rtn…          2590         11251                     5             20250
#>  5 Sema6d_T…          2281          7492                     5             14186
#>  6 Gnai2_Cn…          2527         11392                     6             20558
#>  7 Calm2_Gr…          2542          8040                     9             16302
#>  8 Vegfa_Sd…          1993          5096                    15              9112
#>  9 Fgf9_Fgf…          2009          4942                    20              9532
#> 10 Efna3_Ep…          1900          4272                    21              7666
#> # ℹ 34 more rows
#> # ℹ 7 more variables: graph_diameter <dbl>, graph_un_diameter <dbl>,
#> #   graph_mean_dist <dbl>, graph_circuit_rank <dbl>, graph_reciprocity <dbl>,
#> #   graph_clique_num <int>, graph_clique_count <int>
```
…
``` r
tictoc::tic()

ccc_graph_group_metrics_summary_df <-
  summarize_ccc_graph_metrics(ccc_graph_list, level = "group")

tictoc::toc()
#> 0.058 sec elapsed
```

``` r
ccc_graph_group_metrics_summary_df 
#> # A tibble: 3,154 × 12
#>    LR         group group_n_nodes group_n_edges group_adhesion group_motif_count
#>    <chr>      <int>         <int>         <dbl>          <dbl>             <int>
#>  1 Wnt5a_Fzd3    66             4             4              0                 3
#>  2 Wnt5a_Fzd3    25            15            23              0                34
#>  3 Wnt5a_Fzd3     7            46           110              0               184
#>  4 Wnt5a_Fzd3     1           183           383              0               727
#>  5 Wnt5a_Fzd3     5            49            85              0               156
#>  6 Wnt5a_Fzd3    84             2             1              0                 0
#>  7 Wnt5a_Fzd3    17            21            26              0                48
#>  8 Wnt5a_Fzd3    11            38           120              0               192
#>  9 Wnt5a_Fzd3    20            18            31              0                55
#> 10 Wnt5a_Fzd3     6            49            66              0               122
#> # ℹ 3,144 more rows
#> # ℹ 6 more variables: group_diameter <dbl>, group_un_diameter <dbl>,
#> #   group_mean_dist <dbl>, group_girth <dbl>, group_circuit_rank <dbl>,
#> #   group_reciprocity <dbl>
```

## Visualization

``` r
LR_of_interest <- "App_Dcc"
```

``` r
ccc_graph_list[[LR_of_interest]] %>%
  activate(edges) %>%
  as_tibble()
#> # A tibble: 3,822 × 38
#>     from    to src      dst       d norm.d LR    ligand receptor LRscore  weight
#>    <int> <int> <chr>    <chr> <dbl>  <dbl> <chr> <chr>  <chr>      <dbl>   <dbl>
#>  1     1   577 AAACAAG… CAGC…  138    1.01 App_… App    Dcc        0.745   0.986
#>  2     1  1938 AAACAAG… TTCT…  138.   1.01 App_… App    Dcc        0.685   0.980
#>  3     2  1569 AAACAAT… TAGT…  138    1.01 App_… App    Dcc        0.739   0.986
#>  4     3  1251 AAACACC… GGAA…  138    1.01 App_… App    Dcc        0.671   0.986
#>  5     4     4 AAACAGA… AAAC…    0    0    App_… App    Dcc        0.798 Inf    
#>  6     4   581 AAACAGA… CAGC…  138.   1.01 App_… App    Dcc        0.771   0.980
#>  7     5     5 AAACCGG… AAAC…    0    0    App_… App    Dcc        0.728 Inf    
#>  8     5   805 AAACCGG… CGCC…  138.   1.01 App_… App    Dcc        0.726   0.980
#>  9     6   699 AAACCTC… CCGA…  138.   1.01 App_… App    Dcc        0.701   0.980
#> 10     6  1324 AAACCTC… GGTA…  138.   1.01 App_… App    Dcc        0.714   0.980
#> # ℹ 3,812 more rows
#> # ℹ 27 more variables: WLRscore <dbl>, mclust_8.src <chr>, mclust_10.src <chr>,
#> #   mclust_8.dst <chr>, mclust_10.dst <chr>, graph_n_nodes <int>,
#> #   graph_n_edges <dbl>, graph_component_count <dbl>, graph_motif_count <int>,
#> #   graph_diameter <dbl>, graph_un_diameter <dbl>, graph_mean_dist <dbl>,
#> #   graph_circuit_rank <dbl>, graph_reciprocity <dbl>, graph_clique_num <int>,
#> #   graph_clique_count <int>, group <int>, group_n_nodes <int>, …
```
…
