…
``` r
?LRdb_human
?LRdb_mouse
```

We also created getter functions, get_LRdb() and get_LRdb_small(), to
retrieve the database.

``` r
LRdb_m <- 
  get_LRdb_small("mouse")

LRdb_m %>% 
  arrange(ligand_gene_symbol, receptor_gene_symbol)
#> # A tibble: 105 × 10
#>    LR    ligand_gene_symbol receptor_gene_symbol ligand_gene_id receptor_gene_id
#>    <chr> <chr>              <chr>                         <dbl>            <dbl>
#>  1 Adam… Adam15             Itgb1                         11490            16412
#>  2 Adam… Adam17             Notch2                        11491            18129
#>  3 Adam… Adam9              Itgb5                         11502            16419
#>  4 Adam… Adamts3            Ccbe1                        330119           320924
#>  5 Adcy… Adcyap1            Ramp3                         11516            56089
#>  6 Angp… Angpt2             Itgb2                         11601            16414
#>  7 Apoe… Apoe               Lrp6                          11816            16974
#>  8 Apoe… Apoe               Sdc1                          11816            20969
#>  9 App_… App                Dcc                           11820            13176
#> 10 App_… App                Notch1                        11820            18128
#> # ℹ 95 more rows
#> # ℹ 5 more variables: ligand_ensembl_protein_id <chr>,
#> #   receptor_ensembl_protein_id <chr>, ligand_ensembl_gene_id <chr>,
#> #   receptor_ensembl_gene_id <chr>, evidence <chr>
```
…
tictoc::tic()
ccc_tbl <- compute_spatial_ccc(spe = spe_brain, 
                               assay_name = "logcounts",
                               LRdb = LRdb_m)
tictoc::toc()
#> 7.093 sec elapsed

# future::plan(future::sequential)
```

``` r
ccc_tbl %>% 
  dplyr::arrange(desc(LRscore))
#> # A tibble: 105,610 × 10
#>    src         dst       d norm.d LR    ligand receptor LRscore  weight WLRscore
#>    <chr>       <chr> <dbl>  <dbl> <chr> <chr>  <chr>      <dbl>   <dbl>    <dbl>
#>  1 GCGAGAGTTG… GCGA…    0    0    Apoe… Apoe   Lrp6       0.874 Inf      Inf    
#>  2 GTTCATCGTT… GCGA…  138    1.01 Apoe… Apoe   Lrp6       0.869   0.986    0.857
#>  3 ACTTTACCCT… GCGA…  138.   1.01 Apoe… Apoe   Lrp6       0.868   0.980    0.851
#>  4 AGATGATGGA… GCGA…  138.   1.01 Apoe… Apoe   Lrp6       0.867   0.980    0.849
#>  5 ACACATGATC… GCTG…  138    1.01 Apoe… Apoe   Lrp6       0.852   0.986    0.840
#>  6 TATTCAATTC… GGGA…  138.   1.01 Apoe… Apoe   Lrp6       0.851   0.980    0.834
#>  7 GGAGCGAGGC… GAGG…  137    1    Apoe… Apoe   Lrp6       0.851   1        0.851
#>  8 TGACGAATAT… TCGT…  138.   1.01 Apoe… Apoe   Lrp6       0.850   0.980    0.833
#>  9 GAGGTACGCG… GAGG…    0    0    Apoe… Apoe   Lrp6       0.850 Inf      Inf    
#> 10 GTCCCAACGT… GGGA…  138    1.01 Apoe… Apoe   Lrp6       0.850   0.986    0.837
#> # ℹ 105,600 more rows
```
…
``` r
tictoc::tic()

ccc_graph_metrics_summary_df <-
  summarize_ccc_graph_metrics(ccc_graph_list)

tictoc::toc()
#> 0.063 sec elapsed
```

``` r
ccc_graph_metrics_summary_df %>%
  arrange(graph_component_count)
#> # A tibble: 46 × 12
#>    LR        graph_n_nodes graph_n_edges graph_component_count graph_motif_count
#>    <chr>             <int>         <dbl>                 <dbl>             <int>
#>  1 Adam15_I…          2344          8046                     4             15221
#>  2 S100b_Fg…          2579          9751                     4             18789
#>  3 Calm2_Ad…          2396          6832                     7             14032
#>  4 Apoe_Lrp6          2497          6612                     9             13761
#>  5 Vegfa_Sd…          1993          5096                    15              9112
#>  6 Vegfa_Fl…          1974          4676                    15              8407
#>  7 App_Notc…          2361          5282                    18             11122
#>  8 Adam9_It…          1975          4639                    19              8156
#>  9 Edn1_Edn…            88            64                    38                20
#> 10 App_Dcc            1989          3822                    42              8152
#> # ℹ 36 more rows
#> # ℹ 7 more variables: graph_diameter <dbl>, graph_un_diameter <dbl>,
#> #   graph_mean_dist <dbl>, graph_circuit_rank <dbl>, graph_reciprocity <dbl>,
#> #   graph_clique_num <int>, graph_clique_count <int>
```
…
``` r
tictoc::tic()

ccc_graph_group_metrics_summary_df <-
  summarize_ccc_graph_metrics(ccc_graph_list, level = "group")

tictoc::toc()
#> 0.059 sec elapsed
```

``` r
ccc_graph_group_metrics_summary_df 
#> # A tibble: 3,614 × 12
#>    LR        group group_n_nodes group_n_edges group_adhesion group_motif_count
#>    <chr>     <int>         <int>         <dbl>          <dbl>             <int>
#>  1 Wnt2_Fzd4    11             3             2              0                 1
#>  2 Wnt2_Fzd4    12             3             3              0                 1
#>  3 Wnt2_Fzd4    21             2             2              0                 0
#>  4 Wnt2_Fzd4     4             5             5              0                 4
#>  5 Wnt2_Fzd4    13             3             2              0                 1
#>  6 Wnt2_Fzd4    22             2             1              0                 0
#>  7 Wnt2_Fzd4    14             3             2              0                 1
#>  8 Wnt2_Fzd4    23             2             1              0                 0
#>  9 Wnt2_Fzd4    24             2             1              0                 0
#> 10 Wnt2_Fzd4    25             2             1              0                 0
#> # ℹ 3,604 more rows
#> # ℹ 6 more variables: group_diameter <dbl>, group_un_diameter <dbl>,
#> #   group_mean_dist <dbl>, group_girth <dbl>, group_circuit_rank <dbl>,
#> #   group_reciprocity <dbl>
```

## Visualization

``` r
LR_of_interest <- "App_Dcc"
```

``` r
ccc_graph_list[[LR_of_interest]] %>%
  activate(edges) %>%
  as_tibble()
#> # A tibble: 3,822 × 40
#>     from    to src      dst       d norm.d LR    ligand receptor LRscore  weight
#>    <int> <int> <chr>    <chr> <dbl>  <dbl> <chr> <chr>  <chr>      <dbl>   <dbl>
#>  1     1   577 AAACAAG… CAGC…  138    1.01 App_… App    Dcc        0.745   0.986
#>  2     1  1938 AAACAAG… TTCT…  138.   1.01 App_… App    Dcc        0.685   0.980
#>  3     2  1569 AAACAAT… TAGT…  138    1.01 App_… App    Dcc        0.739   0.986
#>  4     3  1251 AAACACC… GGAA…  138    1.01 App_… App    Dcc        0.671   0.986
#>  5     4     4 AAACAGA… AAAC…    0    0    App_… App    Dcc        0.798 Inf    
#>  6     4   581 AAACAGA… CAGC…  138.   1.01 App_… App    Dcc        0.771   0.980
#>  7     5     5 AAACCGG… AAAC…    0    0    App_… App    Dcc        0.728 Inf    
#>  8     5   805 AAACCGG… CGCC…  138.   1.01 App_… App    Dcc        0.726   0.980
#>  9     6   699 AAACCTC… CCGA…  138.   1.01 App_… App    Dcc        0.701   0.980
#> 10     6  1324 AAACCTC… GGTA…  138.   1.01 App_… App    Dcc        0.714   0.980
#> # ℹ 3,812 more rows
#> # ℹ 29 more variables: WLRscore <dbl>, mclust_8.src <chr>, mclust_10.src <chr>,
#> #   cluster_louvain_10.src <chr>, mclust_8.dst <chr>, mclust_10.dst <chr>,
#> #   cluster_louvain_10.dst <chr>, graph_n_nodes <int>, graph_n_edges <dbl>,
#> #   graph_component_count <dbl>, graph_motif_count <int>, graph_diameter <dbl>,
#> #   graph_un_diameter <dbl>, graph_mean_dist <dbl>, graph_circuit_rank <dbl>,
#> #   graph_reciprocity <dbl>, graph_clique_num <int>, …
```
…
