spatialCCC • spatialCCC
…
#future::plan(future::sequential)

Summarize spatial CCC graphs by LR

ccc_graph_summary_tbl <-
  ccc_graph_list %>%
  to_LR_summary_tbl() %>%
  arrange(desc(perc_rank))

ccc_graph_summary_tbl
#> # A tibble: 41 × 20
#>    LR          L     R         n LRscore n_perc_rank LRscore_perc_rank perc_rank
#>    <chr>       <chr> <chr> <int>   <dbl>       <dbl>             <dbl>     <dbl>
#>  1 App_Lrp1    App   Lrp1  17430   0.806       1                 1         1    
#>  2 Apoe_Trem2  Apoe  Trem2  6937   0.767       0.875             0.975     0.924
#>  3 Nlgn2_Nrxn1 Nlgn2 Nrxn1 14289   0.741       0.975             0.875     0.924
#>  4 Calm2_Cacn… Calm2 Cacn…  8105   0.760       0.9               0.925     0.912
#>  5 Apoe_Ldlr   Apoe  Ldlr   5608   0.764       0.85              0.95      0.899
#>  6 S100a1_Ryr2 S100… Ryr2  10689   0.690       0.95              0.825     0.885
#>  7 Ncam1_Fgfr1 Ncam1 Fgfr1  9640   0.688       0.925             0.8       0.860
#>  8 Calm2_Mylk  Calm2 Mylk   4247   0.750       0.8               0.9       0.849
#>  9 Adcyap1_Ad… Adcy… Adcy…  4172   0.644       0.775             0.75      0.762
#> 10 Adam17_Apl… Adam… Aplp2  3338   0.692       0.675             0.85      0.757
#> # ℹ 31 more rows
#> # ℹ 12 more variables: perc_group <chr>, graph_n_nodes <int>,
#> #   graph_n_edges <dbl>, graph_component_count <dbl>, graph_motif_count <int>,
#> #   graph_diameter <dbl>, graph_un_diameter <dbl>, graph_mean_dist <dbl>,
#> #   graph_circuit_rank <dbl>, graph_reciprocity <dbl>, graph_clique_num <int>,
#> #   graph_clique_count <int>
…
